<?xml version="1.0" standalone="no"?>
<!DOCTYPE svg PUBLIC "-//W3C//DTD SVG 1.1//EN" "http://www.w3.org/Graphics/SVG/1.1/DTD/svg11.dtd" >
<svg xmlns="http://www.w3.org/2000/svg">
<metadata>Generated by IcoMoon</metadata>
<defs>
<font id="icomoon" horiz-adv-x="1024">
<font-face units-per-em="1024" ascent="960" descent="-64" />
<missing-glyph horiz-adv-x="1024" />
<glyph unicode="&#x20;" horiz-adv-x="512" d="" />
<glyph unicode="&#xe600;" glyph-name="flecha_dcha_doble" horiz-adv-x="527" d="M30.313 936.248l488.255-488.212-488.226-488.269-21.732 21.803 8.596 8.496 457.899 457.97-466.452 466.381 21.66 21.831z" />
<glyph unicode="&#xe601;" glyph-name="flecha_izq_doble" horiz-adv-x="527" d="M496.879-40.233l-488.283 488.198 488.255 488.283 21.717-21.803-8.596-8.496-457.913-457.984 466.452-466.381-21.632-21.817z" />
<glyph unicode="&#xe602;" glyph-name="menu_abierto" horiz-adv-x="1021" d="M71.358 742.62h877.84v-27.551h-877.84v27.551zM71.358 461.789h877.84v-27.579h-877.84v27.579zM71.358 162.582h877.84v-27.551h-877.84v27.551z" />
<glyph unicode="&#xe603;" glyph-name="menu_cerrado" horiz-adv-x="1021" d="M15.319 928.344l975.289-975.289 14.602 14.602-975.289 975.289-14.602-14.602zM15.319-32.344l14.602-14.602 975.317 975.289-14.602 14.602-975.317-975.289z" />
<glyph unicode="&#xe60b;" glyph-name="pinterest" d="M536.898 937.331c-268.57 0-404.021-192.583-404.021-353.139 0-97.245 36.829-183.755 115.783-215.993 12.924-5.297 24.541-0.177 28.284 14.159 2.613 9.922 8.792 34.957 11.546 45.374 3.778 14.159 2.33 19.138-8.121 31.497-22.775 26.871-37.323 61.617-37.323 110.874 0 142.866 106.884 270.76 278.351 270.76 151.799 0 235.202-92.76 235.202-216.664 0-162.993-72.139-300.562-179.2-300.562-59.18 0-103.424 48.905-89.229 108.897 16.984 71.609 49.894 148.904 49.894 200.598 0 46.257-24.823 84.851-76.235 84.851-60.487 0-109.038-62.535-109.038-146.326 0-53.354 18.044-89.441 18.044-89.441s-61.864-262.144-72.704-308.047c-21.61-91.418-3.284-203.529-1.695-214.828 0.883-6.709 9.534-8.298 13.418-3.249 5.579 7.274 77.577 96.185 102.047 184.991 6.956 25.176 39.795 155.401 39.795 155.401 19.633-37.464 77.047-70.444 138.063-70.444 181.742 0 305.046 165.676 305.046 387.425 0 167.689-142.054 323.866-357.906 323.866z" />
<glyph unicode="&#xea88;" glyph-name="google-plus" d="M559.066 896c0 0-200.956 0-267.94 0-120.12 0-233.17-91.006-233.17-196.422 0-107.726 81.882-194.666 204.088-194.666 8.498 0 16.756 0.17 24.842 0.752-7.93-15.186-13.602-32.288-13.602-50.042 0-29.938 16.104-54.21 36.468-74.024-15.386 0-30.242-0.448-46.452-0.448-148.782 0.002-263.3-94.758-263.3-193.020 0-96.778 125.542-157.314 274.334-157.314 169.624 0 263.306 96.244 263.306 193.028 0 77.6-22.896 124.072-93.686 174.134-24.216 17.144-70.53 58.836-70.53 83.344 0 28.72 8.196 42.868 51.428 76.646 44.312 34.624 75.672 83.302 75.672 139.916 0 67.406-30.020 133.098-86.372 154.772h84.954l59.96 43.344zM465.48 240.542c2.126-8.972 3.284-18.206 3.284-27.628 0-78.2-50.392-139.31-194.974-139.31-102.842 0-177.116 65.104-177.116 143.3 0 76.642 92.126 140.444 194.964 139.332 24-0.254 46.368-4.116 66.67-10.69 55.826-38.826 95.876-60.762 107.172-105.004zM300.818 532.224c-69.038 2.064-134.636 77.226-146.552 167.86-11.916 90.666 34.37 160.042 103.388 157.99 69.010-2.074 134.638-74.814 146.558-165.458 11.906-90.66-34.39-162.458-103.394-160.392zM832 704v192h-64v-192h-192v-64h192v-192h64v192h192v64z" />
<glyph unicode="&#xea8c;" glyph-name="facebook" d="M672 768c-88.366 0-160-71.634-160-160v-96h-128v-128h128v-448h128v448h144l32 128h-176v96c0 17.672 14.326 32 32 32h160v128h-160z" />
<glyph unicode="&#xea90;" glyph-name="instagram" d="M854 960h-684c-93.5 0-170-76.5-170-170v-684c0-93.5 76.5-170 170-170h684c93.5 0 170 76.5 170 170v684c0 93.5-76.5 170-170 170zM327.8 512h368.4c6.988-20.058 10.8-41.59 10.8-64 0-107.524-87.476-195-195-195s-195 87.476-195 195c0 22.41 3.812 43.942 10.8 64zM896 511.95v-383.95c0-35.2-28.8-64-64-64h-640c-35.2 0-64 28.8-64 64v384h100.108c-4.642-20.602-7.108-42.016-7.108-64 0-160.458 130.542-291 291-291s291 130.542 291 291c0 21.984-2.464 43.398-7.108 64l100.108-0.050zM896 736c0-17.6-14.4-32-32-32h-64c-17.6 0-32 14.4-32 32v64c0 17.6 14.4 32 32 32h64c17.6 0 32-14.4 32-32v-64z" />
<glyph unicode="&#xea91;" glyph-name="twitter" d="M1024 765.582c-37.676-16.708-78.164-28.002-120.66-33.080 43.372 26 76.686 67.17 92.372 116.23-40.596-24.078-85.556-41.56-133.41-50.98-38.32 40.83-92.922 66.34-153.346 66.34-116.022 0-210.088-94.058-210.088-210.078 0-16.466 1.858-32.5 5.44-47.878-174.6 8.764-329.402 92.4-433.018 219.506-18.084-31.028-28.446-67.116-28.446-105.618 0-72.888 37.088-137.192 93.46-174.866-34.438 1.092-66.832 10.542-95.154 26.278-0.020-0.876-0.020-1.756-0.020-2.642 0-101.788 72.418-186.696 168.522-206-17.626-4.8-36.188-7.372-55.348-7.372-13.538 0-26.698 1.32-39.528 3.772 26.736-83.46 104.32-144.206 196.252-145.896-71.9-56.35-162.486-89.934-260.916-89.934-16.958 0-33.68 0.994-50.116 2.94 92.972-59.61 203.402-94.394 322.042-94.394 386.422 0 597.736 320.124 597.736 597.744 0 9.108-0.206 18.168-0.61 27.18 41.056 29.62 76.672 66.62 104.836 108.748z" />
<glyph unicode="&#xea9c;" glyph-name="vimeo" d="M0 651.63l41.594-54.544c0 0 85.77 67.608 114.36 33.802 28.588-33.802 137.736-441.956 174.17-517.246 31.8-66.030 119.518-153.32 215.714-90.982 96.136 62.34 415.84 335.286 473.066 657.616 57.18 322.226-384.72 254.726-431.53-26.010 116.99 70.236 179.436-28.538 119.57-140.372-59.758-111.724-114.36-184.592-142.952-184.592-28.538 0-50.49 74.768-83.188 205.446-33.798 135.102-33.592 378.46-174.116 350.87-132.518-26.012-306.688-233.988-306.688-233.988z" />
<glyph unicode="&#xeac9;" glyph-name="linkedin2" d="M384 576h177.106v-90.782h2.532c24.64 44.194 84.958 90.782 174.842 90.782 186.946 0 221.52-116.376 221.52-267.734v-308.266h-184.61v273.278c0 65.184-1.334 149.026-96.028 149.026-96.148 0-110.82-70.986-110.82-144.292v-278.012h-184.542v576zM64 576h192v-576h-192v576zM256 736c0-53.019-42.981-96-96-96s-96 42.981-96 96c0 53.019 42.981 96 96 96s96-42.981 96-96z" />
</font></defs></svg>